Engine/Binaries/Win64/UE4Game-Win64-Shipping.pdb	2022-01-05T23:19:42.846Z
Engine/Binaries/ThirdParty/PhysX3/Win64/VS2015/PxFoundation_x64.pdb	2022-01-05T23:18:50.079Z
Engine/Binaries/ThirdParty/PhysX3/Win64/VS2015/PxPvdSDK_x64.pdb	2022-01-05T23:18:50.087Z
Engine/Binaries/ThirdParty/PhysX3/Win64/VS2015/PhysX3_x64.pdb	2022-01-05T23:18:47.961Z
Engine/Binaries/ThirdParty/PhysX3/Win64/VS2015/PhysX3Cooking_x64.pdb	2022-01-05T23:18:49.061Z
Engine/Binaries/ThirdParty/PhysX3/Win64/VS2015/PhysX3Common_x64.pdb	2022-01-05T23:18:48.696Z
Engine/Binaries/ThirdParty/PhysX3/Win64/VS2015/APEX_Clothing_x64.pdb	2022-01-05T23:18:43.848Z
Engine/Binaries/ThirdParty/PhysX3/Win64/VS2015/APEX_Legacy_x64.pdb	2022-01-05T23:18:45.328Z
Engine/Binaries/ThirdParty/PhysX3/Win64/VS2015/ApexFramework_x64.pdb	2022-01-05T23:18:46.183Z
Engine/Binaries/ThirdParty/PhysX3/Win64/VS2015/NvCloth_x64.pdb	2022-01-05T23:18:47.194Z
